…
$site
# Group 38-fold cross-validation 
# A tibble: 38 × 2
   splits                id        
   <list>                <chr>     
 1 <split [153596/3376]> Resample01
 2 <split [154460/2512]> Resample02
 3 <split [151197/5775]> Resample03
 4 <split [154697/2275]> Resample04
 5 <split [152765/4207]> Resample05
 6 <split [154664/2308]> Resample06
 7 <split [155018/1954]> Resample07
 8 <split [150384/6588]> Resample08
 9 <split [155828/1144]> Resample09
10 <split [152169/4803]> Resample10
# ℹ 28 more rows
…
