…
 3          3    0.001     371       6.63e-10    15     7
 4          4    0.0178    264       7.20e- 1     2     9
 5          5    0.00781   435       4.77e+ 0    31    14
 6          6    0.210     242       4.39e- 9    18     3
 7          7    0.139     350       1.93e- 7     7    15
 8          8    0.00343   328       3.16e+ 1    21     1
 9          9    0.00151   200       8.48e- 6    26    12
10         10    0.0268    414       1   e-10    34    13
11         11    0.00518   392       1.28e- 6    40     2
12         12    0.316     457       1.64e- 2    23     6
13         13    0.00228   478       2.47e- 3    10    11
14         14    0.0921    221       1.09e- 1    29    10
15         15    0.0118    307       2.91e- 8     4     5
Saving...... XGBoost tuning grid visualization
# A tibble: 30 × 12
    mtry trees min_n tree_depth learn_rate loss_reduction .metric .estimator
   <int> <int> <int>      <int>      <dbl>          <dbl> <chr>   <chr>     
 1     1   328    21          8    0.00343        3.16e+1 rmse    standard  
 2     1   328    21          8    0.00343        3.16e+1 rsq     standard  
 3     2   392    40         11    0.00518        1.28e-6 rmse    standard  
 4     2   392    40         11    0.00518        1.28e-6 rsq     standard  
 5     3   242    18          6    0.210          4.39e-9 rmse    standard  
 6     3   242    18          6    0.210          4.39e-9 rsq     standard  
 7     4   500    12          2    0.0405         5.62e-5 rmse    standard  
 8     4   500    12          2    0.0405         5.62e-5 rsq     standard  
 9     5   307     4         15    0.0118         2.91e-8 rmse    standard  
10     5   307     4         15    0.0118         2.91e-8 rsq     standard  
# ℹ 20 more rows
# ℹ 4 more variables: mean <dbl>, n <int>, std_err <dbl>, .config <chr>
# A tibble: 30 × 12
    mtry trees min_n tree_depth learn_rate loss_reduction .metric .estimator
   <int> <int> <int>      <int>      <dbl>          <dbl> <chr>   <chr>     
 1     1   328    21          8    0.00343        3.16e+1 rmse    standard  
 2     1   328    21          8    0.00343        3.16e+1 rsq     standard  
 3     2   392    40         11    0.00518        1.28e-6 rmse    standard  
 4     2   392    40         11    0.00518        1.28e-6 rsq     standard  
 5     3   242    18          6    0.210          4.39e-9 rmse    standard  
 6     3   242    18          6    0.210          4.39e-9 rsq     standard  
 7     4   500    12          2    0.0405         5.62e-5 rmse    standard  
 8     4   500    12          2    0.0405         5.62e-5 rsq     standard  
 9     5   307     4         15    0.0118         2.91e-8 rmse    standard  
10     5   307     4         15    0.0118         2.91e-8 rsq     standard  
# ℹ 20 more rows
# ℹ 4 more variables: mean <dbl>, n <int>, std_err <dbl>, .config <chr>
…
Main Arguments:
  penalty = tune()
  mixture = tune()

Computational engine: glmnet 

# A tibble: 120 × 2
    penalty mixture
      <dbl>   <dbl>
 1 0.0001         0
 2 0.000183       0
 3 0.000336       0
 4 0.000616       0
 5 0.00113        0
 6 0.00207        0
 7 0.00379        0
 8 0.00695        0
 9 0.0127         0
10 0.0234         0
# ℹ 110 more rows
Saving...... GLMNET tuning grid visualization
Registered 32 cores for glmnet
# A tibble: 240 × 8
   penalty mixture .metric .estimator  mean     n std_err .config          
     <dbl>   <dbl> <chr>   <chr>      <dbl> <int>   <dbl> <chr>            
 1  0.0001     0   rmse    standard   2.43      5 0.00437 pre0_mod001_post0
 2  0.0001     0   rsq     standard   0.394     5 0.00315 pre0_mod001_post0
 3  0.0001     0.2 rmse    standard   2.42      5 0.00449 pre0_mod002_post0
 4  0.0001     0.2 rsq     standard   0.395     5 0.00309 pre0_mod002_post0
 5  0.0001     0.4 rmse    standard   2.42      5 0.00455 pre0_mod003_post0
 6  0.0001     0.4 rsq     standard   0.395     5 0.00313 pre0_mod003_post0
 7  0.0001     0.6 rmse    standard   2.42      5 0.00454 pre0_mod004_post0
 8  0.0001     0.6 rsq     standard   0.395     5 0.00312 pre0_mod004_post0
 9  0.0001     0.8 rmse    standard   2.42      5 0.00456 pre0_mod005_post0
10  0.0001     0.8 rsq     standard   0.395     5 0.00313 pre0_mod005_post0
# ℹ 230 more rows
# A tibble: 240 × 8
   penalty mixture .metric .estimator  mean     n std_err .config          
     <dbl>   <dbl> <chr>   <chr>      <dbl> <int>   <dbl> <chr>            
 1  0.0001     0   rmse    standard   2.43      5 0.00437 pre0_mod001_post0
 2  0.0001     0   rsq     standard   0.394     5 0.00315 pre0_mod001_post0
 3  0.0001     0.2 rmse    standard   2.42      5 0.00449 pre0_mod002_post0
 4  0.0001     0.2 rsq     standard   0.395     5 0.00309 pre0_mod002_post0
 5  0.0001     0.4 rmse    standard   2.42      5 0.00455 pre0_mod003_post0
 6  0.0001     0.4 rsq     standard   0.395     5 0.00313 pre0_mod003_post0
 7  0.0001     0.6 rmse    standard   2.42      5 0.00454 pre0_mod004_post0
 8  0.0001     0.6 rsq     standard   0.395     5 0.00312 pre0_mod004_post0
 9  0.0001     0.8 rmse    standard   2.42      5 0.00456 pre0_mod005_post0
10  0.0001     0.8 rsq     standard   0.395     5 0.00313 pre0_mod005_post0
# ℹ 230 more rows
…
