…
 2          2    0.0405    500       5.62e- 5    12     4
 3          3    0.001     371       6.63e-10    15     7
 4          4    0.0178    264       7.20e- 1     2     9
 5          5    0.00781   435       4.77e+ 0    31    14
 6          6    0.210     242       4.39e- 9    18     3
 7          7    0.139     350       1.93e- 7     7    15
 8          8    0.00343   328       3.16e+ 1    21     1
 9          9    0.00151   200       8.48e- 6    26    12
10         10    0.0268    414       1   e-10    34    13
11         11    0.00518   392       1.28e- 6    40     2
12         12    0.316     457       1.64e- 2    23     6
13         13    0.00228   478       2.47e- 3    10    11
14         14    0.0921    221       1.09e- 1    29    10
15         15    0.0118    307       2.91e- 8     4     5
# A tibble: 30 × 12
    mtry trees min_n tree_depth learn_rate loss_reduction .metric .estimator
   <int> <int> <int>      <int>      <dbl>          <dbl> <chr>   <chr>     
 1     1   328    21          8    0.00343        3.16e+1 rmse    standard  
 2     1   328    21          8    0.00343        3.16e+1 rsq     standard  
 3     2   392    40         11    0.00518        1.28e-6 rmse    standard  
 4     2   392    40         11    0.00518        1.28e-6 rsq     standard  
 5     3   242    18          6    0.210          4.39e-9 rmse    standard  
 6     3   242    18          6    0.210          4.39e-9 rsq     standard  
 7     4   500    12          2    0.0405         5.62e-5 rmse    standard  
 8     4   500    12          2    0.0405         5.62e-5 rsq     standard  
 9     5   307     4         15    0.0118         2.91e-8 rmse    standard  
10     5   307     4         15    0.0118         2.91e-8 rsq     standard  
# ℹ 20 more rows
# ℹ 4 more variables: mean <dbl>, n <int>, std_err <dbl>, .config <chr>
# A tibble: 30 × 12
    mtry trees min_n tree_depth learn_rate loss_reduction .metric .estimator
   <int> <int> <int>      <int>      <dbl>          <dbl> <chr>   <chr>     
 1     1   328    21          8    0.00343        3.16e+1 rmse    standard  
 2     1   328    21          8    0.00343        3.16e+1 rsq     standard  
 3     2   392    40         11    0.00518        1.28e-6 rmse    standard  
 4     2   392    40         11    0.00518        1.28e-6 rsq     standard  
 5     3   242    18          6    0.210          4.39e-9 rmse    standard  
 6     3   242    18          6    0.210          4.39e-9 rsq     standard  
 7     4   500    12          2    0.0405         5.62e-5 rmse    standard  
 8     4   500    12          2    0.0405         5.62e-5 rsq     standard  
 9     5   307     4         15    0.0118         2.91e-8 rmse    standard  
10     5   307     4         15    0.0118         2.91e-8 rsq     standard  
# ℹ 20 more rows
# ℹ 4 more variables: mean <dbl>, n <int>, std_err <dbl>, .config <chr>
…
